<?xml version="1.0" encoding="utf-8"?>
<!-- Generator: Adobe Illustrator 19.1.0, SVG Export Plug-In . SVG Version: 6.00 Build 0)  -->
<!DOCTYPE svg PUBLIC "-//W3C//DTD SVG 1.1//EN" "http://www.w3.org/Graphics/SVG/1.1/DTD/svg11.dtd">
<svg version="1.1" id="Layer_1" xmlns="http://www.w3.org/2000/svg" xmlns:xlink="http://www.w3.org/1999/xlink" x="0px" y="0px"
	 viewBox="0 0 1442.2 674" style="enable-background:new 0 0 1442.2 674;" xml:space="preserve">
<style type="text/css">
	.st0{fill:#414042;}
	.st1{font-family:'ProximaNovaCond-Semibold';}
	.st2{font-size:95px;}
	.st3{font-family:'ProximaNova-Regular';}
	.st4{font-size:70px;}
	.st5{letter-spacing:14;}
	.st6{fill:#007161;}
	.st7{fill:#FFFFFF;}
</style>
<text transform="matrix(1 0 0 1 466.9292 322.203)" class="st0 st1 st2">Green Valley Lake</text>
<text transform="matrix(1 0 0 1 475.9604 397.0003)" class="st0 st3 st4 st5">CHRISTIAN CAMP</text>
<path class="st6" d="M408.1,423.1c14.9,5.7,42.4,6.6,43.3,6.9c-4.4-6.2-34.9-59.1-34.9-59.1c0.1,0.1,0.1,0.1,0.2,0.2
	c5.2,5.3,24.2,5.1,24.2,5.1c-9.3-8.7-34.3-61.8-34.3-61.8c6.5,3.4,22.1,3.2,22.1,3.2c-14.9-15.9-74-143.7-74-143.7
	s-53.7,122.1-74.5,143.9c0,0,16.2,0,22.7-3.4c0,0-25.2,53-34,61.8c0,0,18.7,0.2,23.9-5.1c0.1-0.1,0.1-0.1,0.2-0.2
	c0,0-27.6,54.5-34.5,59.1c0,0,32.2-3.1,46-6.8c0.3-0.1-2.1,6.9-8.3,11.7c0,0,39.6-2.6,46.1-8.8c0,0.3-0.2,23.9-0.2,23.9h26.2v-23.6
	c17.6,6,46.3,8.5,46.3,8.5S410,430.4,408.1,423.1z"/>
<polygon class="st7" points="342.5,395.9 342.5,361.3 337.4,352.3 333.5,352.3 333.5,404.9 373.2,404.9 373.2,395.9 "/>
<path class="st7" d="M377.2,271.9h-19.3v9.7h12.8c-2.6,6.2-8.4,10.4-15,10.4c-9.1,0-16.5-8-16.5-17.8s7.4-17.8,16.5-17.8
	c4.3,0,8.4,1.8,11.5,5l5.7-5.4l-2.7-4.8c-4.2-3-9.2-4.5-14.4-4.5c-14.4,0-26.2,12.3-26.2,27.5s11.7,27.5,26.2,27.5
	c12.7,0,23.5-9.5,25.7-22.5L377.2,271.9z"/>
<path class="st7" d="M371.1,310.4l-15.5,30l-15.5-30c-4-0.2-7.6-0.4-10.8-0.8l26.3,50.7l26.3-50.7
	C378.7,310,375.1,310.2,371.1,310.4z"/>
</svg>
